
<svg width="20px" height="20px" viewBox="0 0 20 20" version="1.1" xmlns="http://www.w3.org/2000/svg" xmlns:xlink="http://www.w3.org/1999/xlink">
    <!-- Generator: Sketch 51.2 (57519) - http://www.bohemiancoding.com/sketch -->
    <desc>Created with Sketch.</desc>
    <defs></defs>
    <g id="GS---FED-Sample-Page" stroke="none" stroke-width="1" fill="none" fill-rule="evenodd" stroke-linecap="round" stroke-linejoin="round">
        <g id="GS---FED-Sample-Page---Desktop" transform="translate(-535.000000, -2140.000000)" stroke="#222222">
            <g id="Blog" transform="translate(10.000000, 1588.000000)">
                <g id="cards" transform="translate(205.000000, 122.000000)">
                    <g id="card-1">
                        <g id="icons" transform="translate(280.000000, 430.000000)">
                            <g id="icon-/-icon-wishlist" transform="translate(40.000000, 0.000000)">
                                <path d="M0.5,5.725 C0.5,2.83931218 2.83931218,0.5 5.725,0.5 C7.49214988,0.5 9.05440096,1.37727602 10,2.72007482 C10.945599,1.37727602 12.5078501,0.5 14.275,0.5 C17.1606878,0.5 19.5,2.83931218 19.5,5.725 C19.5,6.98814773 19.0517732,8.14660648 18.305696,9.05 L10,19.5 L1.694304,9.05 C0.948226759,8.14660648 0.5,6.98814773 0.5,5.725 Z" id="Oval-5"></path>
                            </g>
                        </g>
                    </g>
                </g>
            </g>
        </g>
    </g>
</svg>