
<svg width="20px" height="20px" viewBox="0 0 20 20" version="1.1" xmlns="http://www.w3.org/2000/svg" xmlns:xlink="http://www.w3.org/1999/xlink">
    <!-- Generator: Sketch 51.2 (57519) - http://www.bohemiancoding.com/sketch -->
    <desc>Created with Sketch.</desc>
    <defs></defs>
    <g id="GS---FED-Sample-Page" stroke="none" stroke-width="1" fill="none" fill-rule="evenodd" stroke-linecap="round" stroke-linejoin="round">
        <g id="GS---FED-Sample-Page---Desktop" transform="translate(-1550.000000, -30.000000)" stroke="#222222">
            <g id="Header">
                <g id="search" transform="translate(1550.000000, 30.000000)">
                    <g id="icon-/-icon-search">
                        <circle id="Oval-1" cx="7.5" cy="7.5" r="7"></circle>
                        <path d="M12.5,12.5 L19.5,19.5" id="Line"></path>
                    </g>
                </g>
            </g>
        </g>
    </g>
</svg>